Country,Industry,Link,Symb,CompanyName
--,--,https://markets.ft.com/data/equities/tearsheet/summary?s=EEIG:PKC,EEIG:PKC,024 Pharma Inc
Canada,Software & Computer Services,https://markets.ft.com/data/equities/tearsheet/summary?s=ONE:CVE,ONE:CVE,01 Communique Laboratory Inc
United States,General Retailers,https://markets.ft.com/data/equities/tearsheet/summary?s=FLWS:NSQ,FLWS:NSQ,1-800-Flowers.Com Inc
Australia,Mining,https://markets.ft.com/data/equities/tearsheet/summary?s=1PG:ASX,1PG:ASX,1-Page Ltd
France,Media,https://markets.ft.com/data/equities/tearsheet/summary?s=ALMIL:PAR,ALMIL:PAR,1000mercis SA
Thailand,General Financial,https://markets.ft.com/data/equities/tearsheet/summary?s=MONTRI:SET,MONTRI:SET,101 Montri Storage Property Fund
Taiwan,Support Services,https://markets.ft.com/data/equities/tearsheet/summary?s=3130:TAI,3130:TAI,104 Corp
Germany,Support Services,https://markets.ft.com/data/equities/tearsheet/summary?s=TGTX:GER,TGTX:GER,11 88 0 Solutions AG
Poland,Leisure Goods,https://markets.ft.com/data/equities/tearsheet/summary?s=11B:WSE,11B:WSE,11 Bit Studios SA
--,--,https://markets.ft.com/data/equities/tearsheet/summary?s=DVGGD:PKC,DVGGD:PKC,12 Retech Corp
